module github.com/janisz/spymaster

go 1.17

require (
	github.com/charmbracelet/bubbletea v0.22.0
	github.com/charmbracelet/wish v0.5.0
	github.com/gliderlabs/ssh v0.3.4
	gopkg.in/yaml.v3 v3.0.1
)

require (
	github.com/anmitsu/go-shlex v0.0.0-20200514113438-38f4b401e2be // indirect
	github.com/caarlos0/sshmarshal v0.1.0 // indirect
	github.com/charmbracelet/keygen v0.3.0 // indirect
	github.com/charmbracelet/lipgloss v0.4.0 // indirect
	github.com/containerd/console v1.0.3 // indirect
	github.com/lucasb-eyer/go-colorful v1.2.0 // indirect
	github.com/mattn/go-isatty v0.0.14 // indirect
	github.com/mattn/go-runewidth v0.0.13 // indirect
	github.com/mitchellh/go-homedir v1.1.0 // indirect
	github.com/muesli/ansi v0.0.0-20211018074035-2e021307bc4b // indirect
	github.com/muesli/cancelreader v0.2.1 // indirect
	github.com/muesli/reflow v0.3.0 // indirect
	github.com/muesli/termenv v0.11.1-0.20220212125758-44cd13922739 // indirect
	github.com/rivo/uniseg v0.2.0 // indirect
	golang.org/x/crypto v0.0.0-20220307211146-efcb8507fb70 // indirect
	golang.org/x/sys v0.0.0-20220209214540-3681064d5158 // indirect
	golang.org/x/term v0.0.0-20210927222741-03fcf44c2211 // indirect
)
